{
  "button_40":{
      "name" : "butwhatifIdontagreewillothers",
      "question_state" : 40,
      "player_question" : "But what if I don't agree will others?",
      "question_answers" : ["It's ok to not agree with everyone, but you have to understand why people may think different.", "ok", "agree", "understand", "people think different", "understanding"],
      "unlock_buttons" : [41],
      "logs" : 15
    },
  "button_41":{
      "name" : "becausetheyrestupid",
      "question_state" : 41,
      "player_question" : "Because they're stupid?",
      "question_answers" : ["No, they're not and you shouldn't speak harshly, they might think the same thing about you.", "no", "different", "respect", "not stupid", "you are"],
      "unlock_buttons" : [42, 43],
      "logs" : 10
    },
  "button_42":{
      "name" : "soitsonmetodoallthework",
      "question_state" : 42,
      "player_question" : "So it's on me to do all the work?",
      "question_answers" : ["It starts with you, but it's not entirely up to you, or...", "yes", "pretty much", "in part", "not entirely", "no"],
      "unlock_buttons" : [44],
      "logs" : 4
    },
    "button_43":{
      "name" : "idontcarewhattheythinkaboutme",
      "question_state" : 43,
      "player_question" : "I don't care what they think about me!",
      "question_answers" : ["You should care if you don't want to be alone", "you should care", "care", "you aren't", "I don't think so", "you are"],
      "unlock_buttons" : [45],
      "logs" : 4
    },
  "button_44":{
      "name" : "really",
      "question_state" : 44,
      "player_question" : "Really?",
      "question_answers" : ["At least, you might give something to think about to others.", "make think", "to think", "give", "bug", "other"],
      "unlock_buttons" : [45],
      "logs" : 14
    },
  "button_45":{
      "name" : "whatsinthisforme",
      "question_state" : 45,
      "player_question" : "What's in this for me?",
      "question_answers" : ["New interactions.", "new", "interactions", "things", "innovations", "looking for"],
      "unlock_buttons" : [46, 47],
      "logs" : 8
    },
  "button_46":{
      "name" : "itseemsexhausting",
      "question_state" : 46,
      "player_question" : "It seems exhausting...",
      "question_answers" : ["It is.", "yes", "it is", "life", "work", "required"],
      "unlock_buttons" : [47],
      "logs" : 20
    },
  "button_47":{
      "name" : "thatsyourpeptalk?",
      "question_state" : 47,
      "player_question" : "That's your pep talk?",
      "question_answers" : ["Well, it's not my choice, it's yours.", "choice", "yours", "your", "problem", "not my"],
      "unlock_buttons" : [48],
      "logs" : 20
    },
  "button_48":{
      "name" : "okhowcanidothis",
      "question_state" : 48,
      "player_question" : "Ok, how can I do this?",
      "question_answers" : ["You have to meet one of the Makerz.", "authors", "Makerz", "devs", "engineers", "makerz"],
      "unlock_buttons" : [49],
      "logs" : 21
    },
  "button_49":{
      "name" : "whoarethesemakerz",
      "question_state" : 49,
      "player_question" : "Who are these Makerz?",
      "question_answers" : ["The Maker's original crafters. Ask me again next time.", "crafters", "original", "I'm one", "I am one", "I am one of them"],
      "unlock_buttons" : [50,51,52,53,54],
      "logs" : 21
    },
   "button_50":{
      "name" : "nowwhoareyoureally",
      "question_state" : 50,
      "player_question" : "Now, who are you really?",
      "question_answers" : ["Concern humans.", "humans", "human", "concern", "vigilant", "simple"],
      "unlock_buttons" : [55],
      "logs" : 21
    },
   "button_51":{
      "name" : "whatamidoing",
      "question_state" : 51,
      "player_question" : "What am I doing?",
      "question_answers" : ["You start communicating with others, like in communion to one goal: feel together again.", "communicating", "communicate", "communion", "feel together", "one goal"],
      "unlock_buttons" : [60],
      "logs" : 21
    },
   "button_52":{
      "name" : "whataboutmymaker",
      "question_state" : 52,
      "player_question" : "What about my Maker?",
      "question_answers" : ["Your Maker is fine, we just implement a backdoor to access it.", "fine", "backdoor", "hack", "access", "maker"],
      "unlock_buttons" : [65],
      "logs" : 21
    },
   "button_53":{
      "name" : "canigobacktomylife",
      "question_state" : 53,
      "player_question" : "Can I go back to my life?",
      "question_answers" : ["Well you can, you just have to shutdown your Maker", "quit", "can", "shutdown", "leave", "yes you can"],
      "unlock_buttons" : [70],
      "logs" : 21
    },
   "button_54":{
      "name" : "ifeeltrapped",
      "question_state" : 54,
      "player_question" : "I feel trapped...",
      "question_answers" : ["I'm sorry, you are. You are in a closed software, who knows what can happened.", "sorry", "you are", "closed software", "black box", "trust"],
      "unlock_buttons" : [55],
      "logs" : 21
    },
    "button_55":{
      "name" : "concernbywhat",
      "question_state" : 55,
      "player_question" : "Concern by what?",
      "question_answers" : ["Isolation.", "isolation", "Isolation", "freedome", "loneliness", "alone"],
      "unlock_buttons" : [56],
      "logs" : 21
    },
     "button_56":{
      "name" : "butiwashappyonmyown",
      "question_state" : 56,
      "player_question" : "But I was happy on my own...",
      "question_answers" : ["Were you?", "were", "you", "were you?", "Really?", "really?"],
      "unlock_buttons" : [56],
      "logs" : 21
    },
    "button_60":{
      "name" : "feelingwhatwhatgoal",
      "question_state" : 60,
      "player_question" : "Feeling what? What goal?",
      "question_answers" : ["Being a society.", "society", "group", "Society", "nation", "Nation"],
      "unlock_buttons" : [61],
      "logs" : 21
    },
    "button_61":{
      "name" : "whywouldiwantthat",
      "question_state" : 61,
      "player_question" : "Why would I want that?",
      "question_answers" : ["What you want is irrelevant, Humanity is dying.", "irrelevant", "risk", "peril", "extinction", "humanity"],
      "unlock_buttons" : [62],
      "logs" : 21
    },
    "button_62":{
      "name" : "whatwhy",
      "question_state" : 62,
      "player_question" : "What? Why?",
      "question_answers" : ["From boredome, we let ourself die slowly.", "boredom", "slowly", "low natality", "no new birth", "suicide"],
      "unlock_buttons" : [62],
      "logs" : 20
    },
    "button_65":{
      "name" : "abackdoor",
      "question_state" : 65,
      "player_question" : "A backdoor?",
      "question_answers" : ["I know, it's illegal, but your maker is also closed source so...", "illegal", "close", "closed", "source", "closed source"],
      "unlock_buttons" : [66],
      "logs" : 21
    },
    "button_66":{
      "name" : "soitswhatnatural",
      "question_state" : 66,
      "player_question" : "So it's what? Natural?",
      "question_answers" : ["Not natural, but probable. If no one can check the code, you can get caught putting malware inside. No risks.", "probable", "Probable", "no risks", "no risks", "risks"],
      "unlock_buttons" : [66],
      "logs" : 21
    },
    "button_70":{
      "name" : "buthalfofmyhardwarewontworkanymore",
      "question_state" : 70,
      "player_question" : "But half of my hardware won't work anymore!",
      "question_answers" : ["You're staying with us then?", "stuck", "with us", "us", "choice", "staying"],
      "unlock_buttons" : [70],
      "logs" : 21
    },
}