{
  "button_20":{
      "name" : "voiders",
      "question_state" : 20,
      "player_question" : "The Voiders?",
      "question_answers" : ["They are the symbiotic ones.", "green", "symbiotic", "nature", "organic", "vegetal"],
      "unlock_buttons" : [23],
      "logs" : 1
    },
  "button_21":{
      "name" : "builders",
      "question_state" : 21,
      "player_question" : "How about the Builders?",
      "question_answers" : ["They are the changeable ones.", "brown", "changeable", "industry", "composite", "mechanical"],
      "unlock_buttons" : [23],
      "logs" : 1
    },
  "button_22":{
      "name" : "thinkers",
      "question_state" : 22,
      "player_question" : "They seems odd, these Thinkers...",
      "question_answers" : ["They are the focused ones.", "blue", "focused", "technology", "neo", "digital"],
      "unlock_buttons" : [23],
      "logs" : 1
    },
  "button_23":{
      "name" : "whydoihavetotalktothem",
      "question_state" : 23,
      "player_question" : "Why do I have to talk to them?",
      "question_answers" : ["To reconnect.", "to understand them", "reconnect", "important", "connect", "connection"],
      "unlock_buttons" : [24],
      "logs" : 1
    },
  "button_24":{
      "name" : "butimconnectedimonline",
      "question_state" : 24,
      "player_question" : "But I'm connected, I'm online!",
      "question_answers" : ["You're connected with people like you.", "same", "I'm not", "no diversity", "bubble", "people"],
      "unlock_buttons" : [25, 26],
      "logs" : 7
    },
  "button_25":{
      "name" : "didyouhackmymaker",
      "question_state" : 25,
      "player_question" : "Did you hack my maker?",
      "question_answers" : ["I am your Maker.", "no", "No", "safe", "no hack", "I did not"],
      "unlock_buttons" : [26],
      "logs" : 9
    },
  "button_26":{
      "name" : "beinginabubbleisbad",
      "question_state" : 26,
      "player_question" : "Being in a bubble is bad?",
      "question_answers" : ["Yes.", "no", "yes", "decay", "sclerosis", "prison"],
      "unlock_buttons" : [27, 28],
      "logs" : 3
    },
  "button_27":{
      "name" : "whyisthat",
      "question_state" : 27,
      "player_question" : "Why is that?",
      "question_answers" : ["Because you will all end up alone.", "end", "alone", "same", "dangerous", "wrong"],
      "unlock_buttons" : [28],
      "logs" : 6
    },
  "button_28":{
      "name" : "whatdoyoumean",
      "question_state" : 28,
      "player_question" : "What do you mean?",
      "question_answers" : ["There is no diversity in your faction.", "diversity", "faction", "pluralism", "mix", "variety"],
      "unlock_buttons" : [29],
      "logs" : 2
    },
  "button_29":{
      "name" : "okimeetthenewonessandthenwhat",
      "question_state" : 29,
      "player_question" : "Ok I meet the new ones and then what?",
      "question_answers" : ["Then you learn new things and teach new things.", "learn", "teach", "new", "originality", "dialogue"],
      "unlock_buttons" : [40],
      "logs" : 2
    },
}