{
  "log_1":{
      "log_text" : "2075 – All form of human association is prohibited to benefits companies and corporations in almost every countries. This decision is applied officially to raise non-profit work to corporate’s standards. Some countries like Estonia became subject to massives migrations for their support to non-profit work and creation. Some countries like Estonia became subject to massives migrations for their support to non-profit work and creation.",
    },
  "log_2":{
      "log_text" : "2100 – Achievement of a 15 years program to unify countries into the Central Conglomerate, for the first time in history all humans will live under the same laws and under the control of the most powerful entities in the world.",
    },
  "log_3":{
      "log_text" : "2156 – Nano-technology break through on cell regenerations allow humans extend life to about 200 years.",
    },
  "log_4":{
      "log_text" : "2250 – For the last 100 years technology and habits evolutions slowly transformed the liberal capitalisme ideology into a liberal totalitarisme ideology.",
    },
  "log_5":{
      "log_text" : "About 2300 – Break through in physics and in engineering made possible long distances communications. Also a sustainable extra-solar spatial era became possible. In April 2301, the spacecraft « The Reacher » reached Wolf 1061b sending back to Earth new datas about this exoplanet, unfortunally the planet the amount of radiations at the surface was strongly supperior to what was anticipated, The Reacher continue its journey towards Wolf 1061c and d to plant a research facility.",
    },
  "log_6":{
      "log_text" : "2364 – Beginning of the dispersion, those who can afford space travel started to migrate across the galaxy. Corporations and companies moved their corporate offices off solar system. Earth, Mars were abandoned, Venus, Mercury and the outers planets were just kept under control for mining and heavy industries.",
    },
  "log_7":{
      "log_text" : "2382 – Beginning of the design of the Maker by Jared and Oriana Novac (original designers and engineers).",
    },
  "log_8":{
      "log_text" : "2390 – First version of the Maker (version number 0.0.1), communication protocols coordination and infection low level of every terminals.",
    },
  "log_9":{
      "log_text" : "2392 – Second version of the Maker (version number 0.0.5), infection high level of terminals, overwhelming and taking control of communication protocols.",
    },
  "log_10":{
      "log_text" : "2399 – Fifth version (number 0.8.0), first hardware version of the Maker.",
    },
  "log_11":{
      "log_text" : "About 2400 – Result (one of many) of the dispertion, the 24th century marks the beginning of the decline of the population of the human race.",
    },
  "log_12":{
      "log_text" : "2405 – Tenth version (number 0.9.5), interface and basic user commandes. Creation of the « Makerz Group ».",
    },
  "log_13":{
      "log_text" : "2415 – Official lauch of the communication hardware « Maker ».",
    },
  "log_14":{
      "log_text" : "2415 – First public release of the OSHL (Operating System of Humain Life), called « Maker ».",
    },
  "log_15":{
      "log_text" : "2448 – Approval and establishment of the decision « One For One ». « One For One » was a plan to give one planet to one person so everyone would have its own world to administrate. This decision settled a massive amount of problems (property laws or community and social beaviours for exemple).",
    },
  "log_16":{
      "log_text" : "About 2500 – End of the last social subcultures, humans don’t have enough interactions anymore to share things.",
    },
  "log_17":{
      "log_text" : "2680 - The Maker operates on 100 % of the known human systems. Other operating systems functions are transfered to the Maker, protocols are unified.",
    },
  "log_18":{
      "log_text" : "2680 - « Infection », phase 1 of the Makerz ‘s plan : Achieved. Start of the phase 2 : « Upgrade ».",
    },
  "log_19":{
      "log_text" : "2755 – Human social groups left are based on the three most powerful corporations still running.",
    },
  "log_20":{
      "log_text" : "2800 – Networks analysis show human interactions aren't increasing since about 50 years. Tendancies suggest human interactions rate will decline in the next century.",
    },  
  "log_21":{
      "log_text" : "2875 – Start of the phase 3 of the Makerz’s plan : « Isolation ».",
    },
}