[gd_resource type="StyleBoxFlat" format=2]

[resource]
content_margin_left = 5.0
content_margin_right = 5.0
bg_color = Color( 0.211765, 0.211765, 0.211765, 1 )
corner_radius_top_left = 15
corner_radius_bottom_right = 15
corner_detail = 1
