[gd_resource type="StyleBoxFlat" format=2]

[resource]
content_margin_top = 20.0
content_margin_bottom = 20.0
bg_color = Color( 0.321569, 0.321569, 0.321569, 1 )
corner_radius_top_left = 100
corner_radius_top_right = 100
corner_radius_bottom_right = 100
corner_radius_bottom_left = 100
corner_detail = 1
expand_margin_left = 10.0
expand_margin_right = 10.0
