[gd_resource type="StyleBoxFlat" format=2]

[resource]
content_margin_left = 10.0
content_margin_right = 10.0
content_margin_top = 3.0
content_margin_bottom = 3.0
bg_color = Color( 1, 1, 1, 0.196078 )
border_width_left = 5
border_color = Color( 1, 1, 1, 1 )
corner_radius_top_right = 15
corner_radius_bottom_right = 100
corner_detail = 1
