[gd_resource type="StyleBoxFlat" format=2]

[resource]
content_margin_left = 20.0
content_margin_right = 20.0
bg_color = Color( 0.94902, 0.945098, 0.945098, 1 )
border_width_left = 10
border_width_top = 1
border_width_right = 10
border_width_bottom = 1
border_color = Color( 0.717647, 0.878431, 0.886275, 1 )
corner_radius_top_left = 100
corner_radius_top_right = 100
corner_radius_bottom_right = 100
corner_radius_bottom_left = 100
corner_detail = 1
