[gd_resource type="StyleBoxFlat" format=2]

[resource]
bg_color = Color( 0.352941, 1, 0.00392157, 1 )
corner_radius_top_left = 10
corner_radius_top_right = 2
corner_radius_bottom_right = 10
corner_radius_bottom_left = 2
