[gd_resource type="StyleBoxFlat" format=2]

[resource]
bg_color = Color( 0.239216, 0.239216, 0.239216, 0.941176 )
border_width_left = 7
border_width_top = 2
border_width_right = 2
border_width_bottom = 2
border_color = Color( 0.352941, 1, 0.00392157, 1 )
corner_radius_top_left = 50
corner_radius_bottom_right = 50
