[gd_resource type="StyleBoxFlat" format=2]

[resource]
content_margin_left = 20.0
content_margin_right = 20.0
bg_color = Color( 0.239216, 0.239216, 0.239216, 0.843137 )
border_width_left = 10
border_width_top = 2
border_width_right = 2
border_width_bottom = 2
border_color = Color( 0.447059, 0.737255, 0.211765, 1 )
corner_radius_top_left = 50
corner_radius_bottom_right = 50
