[gd_resource type="StyleBoxFlat" format=2]

[resource]
content_margin_left = 20.0
content_margin_right = 20.0
bg_color = Color( 0.239216, 0.239216, 0.239216, 1 )
border_width_left = 20
border_width_top = 3
border_width_right = 3
border_width_bottom = 3
border_color = Color( 0.329847, 0.543055, 0.156977, 1 )
corner_radius_top_left = 50
corner_radius_bottom_right = 50
