[gd_scene load_steps=2 format=2]

[ext_resource path="res://scenes/network/no_internet.gd" type="Script" id=1]

[node name="no_internet_back" type="Node"]
script = ExtResource( 1 )

[node name="no_internet_text" type="Label" parent="."]
anchor_left = 0.5
anchor_top = 0.5
anchor_right = 0.5
anchor_bottom = 0.5
margin_left = -400.0
margin_top = -150.0
margin_right = 400.0
margin_bottom = 150.0
rect_min_size = Vector2( 800, 300 )
text = "No network connection has been found by the Maker,
It's not usually an issue but the Maker is currently in Safe Mode.

In Safe Mode the Maker requiers an internet connection.

Please retry later..."
align = 1
valign = 1
