[gd_scene load_steps=2 format=2]

[ext_resource path="res://scenes/interfaces/offline_choice_scene.gd" type="Script" id=1]

[node name="offline_choice_scene" type="Control"]
anchor_right = 1.0
anchor_bottom = 1.0
script = ExtResource( 1 )

[node name="CenterContainer" type="CenterContainer" parent="."]
margin_right = 1920.0
margin_bottom = 1080.0
size_flags_horizontal = 5
size_flags_vertical = 5

[node name="Panel" type="Panel" parent="CenterContainer"]
margin_left = 560.0
margin_top = 390.0
margin_right = 1360.0
margin_bottom = 690.0
rect_min_size = Vector2( 800, 300 )
size_flags_horizontal = 7
size_flags_vertical = 7

[node name="VBoxContainer" type="VBoxContainer" parent="CenterContainer/Panel"]
anchor_left = 0.073
anchor_top = 0.064
anchor_right = 0.073
anchor_bottom = 0.064
margin_right = 687.0
margin_bottom = 256.0
size_flags_horizontal = 7
size_flags_vertical = 7
alignment = 1

[node name="RichTextLabel" type="RichTextLabel" parent="CenterContainer/Panel/VBoxContainer"]
margin_right = 687.0
margin_bottom = 232.0
size_flags_horizontal = 7
size_flags_vertical = 7
tab_size = 8

[node name="HBoxContainer" type="HBoxContainer" parent="CenterContainer/Panel/VBoxContainer"]
margin_top = 236.0
margin_right = 687.0
margin_bottom = 256.0
alignment = 1

[node name="online_mode" type="Button" parent="CenterContainer/Panel/VBoxContainer/HBoxContainer"]
margin_left = 243.0
margin_right = 341.0
margin_bottom = 20.0
text = "OnLine Mode"

[node name="offline_mode" type="Button" parent="CenterContainer/Panel/VBoxContainer/HBoxContainer"]
margin_left = 345.0
margin_right = 443.0
margin_bottom = 20.0
text = "OffLine Mode"

[connection signal="button_down" from="CenterContainer/Panel/VBoxContainer/HBoxContainer/online_mode" to="." method="_on_online_mode_button_down"]
[connection signal="button_down" from="CenterContainer/Panel/VBoxContainer/HBoxContainer/offline_mode" to="." method="_on_offline_mode_button_down"]
